%YAML 1.1
%TAG !u! tag:unity3d.com,2011:
--- !u!1 &5985866450738783772
GameObject:
  m_ObjectHideFlags: 0
  m_CorrespondingSourceObject: {fileID: 0}
  m_PrefabInstance: {fileID: 0}
  m_PrefabAsset: {fileID: 0}
  serializedVersion: 6
  m_Component:
  - component: {fileID: 5985866450738783746}
  - component: {fileID: 5985866450738783773}
  m_Layer: 0
  m_Name: Gameplay_Intro_Timeline
  m_TagString: Untagged
  m_Icon: {fileID: 0}
  m_NavMeshLayer: 0
  m_StaticEditorFlags: 0
  m_IsActive: 1
--- !u!4 &5985866450738783746
Transform:
  m_ObjectHideFlags: 0
  m_CorrespondingSourceObject: {fileID: 0}
  m_PrefabInstance: {fileID: 0}
  m_PrefabAsset: {fileID: 0}
  m_GameObject: {fileID: 5985866450738783772}
  m_LocalRotation: {x: 0, y: 0, z: 0, w: 1}
  m_LocalPosition: {x: 0, y: 0, z: 0}
  m_LocalScale: {x: 1, y: 1, z: 1}
  m_Children: []
  m_Father: {fileID: 0}
  m_RootOrder: 0
  m_LocalEulerAnglesHint: {x: 0, y: 0, z: 0}
--- !u!320 &5985866450738783773
PlayableDirector:
  m_ObjectHideFlags: 0
  m_CorrespondingSourceObject: {fileID: 0}
  m_PrefabInstance: {fileID: 0}
  m_PrefabAsset: {fileID: 0}
  m_GameObject: {fileID: 5985866450738783772}
  m_Enabled: 1
  serializedVersion: 3
  m_PlayableAsset: {fileID: 11400000, guid: 0a37611ab1963493c84f805adaca327f, type: 2}
  m_InitialState: 1
  m_WrapMode: 0
  m_DirectorUpdateMode: 1
  m_InitialTime: 0
  m_SceneBindings:
  - key: {fileID: 114584259500012198, guid: 0a37611ab1963493c84f805adaca327f, type: 2}
    value: {fileID: 0}
  - key: {fileID: 114266802692352216, guid: 0a37611ab1963493c84f805adaca327f, type: 2}
    value: {fileID: 0}
  - key: {fileID: 114253712000438688, guid: 0a37611ab1963493c84f805adaca327f, type: 2}
    value: {fileID: 0}
  - key: {fileID: 114005251995076006, guid: 0a37611ab1963493c84f805adaca327f, type: 2}
    value: {fileID: 0}
  - key: {fileID: 114789912106899444, guid: 0a37611ab1963493c84f805adaca327f, type: 2}
    value: {fileID: 0}
  - key: {fileID: 114001263329840564, guid: 0a37611ab1963493c84f805adaca327f, type: 2}
    value: {fileID: 0}
  - key: {fileID: 114772538108205822, guid: 0a37611ab1963493c84f805adaca327f, type: 2}
    value: {fileID: 0}
  - key: {fileID: 114849201276961582, guid: 0a37611ab1963493c84f805adaca327f, type: 2}
    value: {fileID: 0}
  - key: {fileID: 114153928856856700, guid: 0a37611ab1963493c84f805adaca327f, type: 2}
    value: {fileID: 0}
  m_ExposedReferences:
    m_References: []
