%YAML 1.1
%TAG !u! tag:unity3d.com,2011:
--- !u!1 &1019787296165444
GameObject:
  m_ObjectHideFlags: 0
  m_CorrespondingSourceObject: {fileID: 0}
  m_PrefabInstance: {fileID: 0}
  m_PrefabAsset: {fileID: 0}
  serializedVersion: 6
  m_Component:
  - component: {fileID: 4893403959414016}
  - component: {fileID: 114472804864517158}
  m_Layer: 0
  m_Name: PrefabReferences
  m_TagString: Untagged
  m_Icon: {fileID: 0}
  m_NavMeshLayer: 0
  m_StaticEditorFlags: 0
  m_IsActive: 1
--- !u!4 &4893403959414016
Transform:
  m_ObjectHideFlags: 0
  m_CorrespondingSourceObject: {fileID: 0}
  m_PrefabInstance: {fileID: 0}
  m_PrefabAsset: {fileID: 0}
  m_GameObject: {fileID: 1019787296165444}
  m_LocalRotation: {x: 0, y: 0, z: 0, w: 1}
  m_LocalPosition: {x: 0, y: 0, z: 0}
  m_LocalScale: {x: 1, y: 1, z: 1}
  m_Children: []
  m_Father: {fileID: 0}
  m_RootOrder: 0
  m_LocalEulerAnglesHint: {x: 0, y: 0, z: 0}
--- !u!114 &114472804864517158
MonoBehaviour:
  m_ObjectHideFlags: 0
  m_CorrespondingSourceObject: {fileID: 0}
  m_PrefabInstance: {fileID: 0}
  m_PrefabAsset: {fileID: 0}
  m_GameObject: {fileID: 1019787296165444}
  m_Enabled: 1
  m_EditorHideFlags: 0
  m_Script: {fileID: 11500000, guid: 442ac454dde377b499a5106b58789677, type: 3}
  m_Name: 
  m_EditorClassIdentifier: 
  allPrefabs:
  - {fileID: 7056953943440268695, guid: f9b4fb600330243febf3ec0f2c6fef6b, type: 3}
  - {fileID: 1479887593580450, guid: c54d086f254ce274781213b007ed810c, type: 3}
  - {fileID: 8448716343226122765, guid: d59ca0c6b86ae46f4b242f7ec7d821dd, type: 3}
  - {fileID: 1653686695687168, guid: 6ef8c70ee398040cd96c9c6b046d7ee0, type: 3}
  - {fileID: 1108219214392153593, guid: 5aed6f9ffee724587a235744429895af, type: 3}
  - {fileID: 8628055101702890548, guid: 6f6f1c9969d5d4955bccb8f9625cbc08, type: 3}
  - {fileID: 4999904008077553225, guid: 1508c2373a6254f31a46be0c0713db4e, type: 3}
  - {fileID: 2128761118451297246, guid: dbf81895298634f82b0b22e9b30566ad, type: 3}
  - {fileID: 8842957397557214699, guid: cb3255caa3eaa45de82376e482504b01, type: 3}
  - {fileID: 7454528938492542308, guid: 3413fa6a459594b3f96866b4d32fee7d, type: 3}
  - {fileID: 1653686695687168, guid: 42a54d3a39edc48fb91eca419f7ef01e, type: 3}
  - {fileID: 4070903440502623187, guid: d3e637851e7dc4179b4186079110b867, type: 3}
  - {fileID: 5195248031393084257, guid: 709cc41fa131f4adcaa775f8b3e8fa58, type: 3}
  - {fileID: 100000, guid: 93bdcaae53f95461785a8eeb8c01bc61, type: 3}
  - {fileID: 100012, guid: 384371afbb4354cc9a3fc68eab303756, type: 3}
  - {fileID: 100004, guid: a6d58f54ce5934781962a4f887e834f3, type: 3}
  - {fileID: 1560558224493566, guid: 1d08b6c4fc93b4816be92979bac02b20, type: 3}
  - {fileID: 1859710063229298, guid: 1a06aa0896835ab4d92672582ee1742e, type: 3}
  - {fileID: 7921343401357747671, guid: c06aecff92992448abdcc3d9b9c15791, type: 3}
  - {fileID: 7283526036895945522, guid: 2284ca6460cb9434a82a582746fee501, type: 3}
  - {fileID: 1763159912722206449, guid: 5f7475031a2af4462b2026cf23103da2, type: 3}
  - {fileID: 5985866450738783772, guid: 736b7182c7fc0408e9762fd0be6e174d, type: 3}
  - {fileID: 4262523408607854551, guid: 637df5575a6af496c846f643e3ce973e, type: 3}
  - {fileID: 1458198147551692, guid: 58dc4a156c6b5984987f3394fd558d37, type: 3}
  - {fileID: 7074077899913605517, guid: 833610866f28d4eca81263583e36131e, type: 3}
  - {fileID: 1670412942818376495, guid: 76dc9bdba66cc454db22f3045f7269d1, type: 3}
  - {fileID: 1138199845139298, guid: 94a58f57296315a43acf9cb0455c51cb, type: 3}
  - {fileID: 1497009212154668, guid: 23ae68550ac027343ae9bcb8d291148b, type: 3}
  - {fileID: 1935473650922600, guid: 073a42ed5c0e32f4caca730878a5f2b9, type: 3}
  - {fileID: 8169940418055762980, guid: cd69c3ef3059443c7ac3a6898768c0dd, type: 3}
  - {fileID: 4642889213725139661, guid: 86312250ed7ca4fb7868855c8158d239, type: 3}
  - {fileID: 3285334564968287983, guid: 6588f82ac6d4c40f39d3fcc0a43a6dc4, type: 3}
  - {fileID: 682959222126277044, guid: 085b1f150b1aa4f62a5d4c29c4f1f7b9, type: 3}
  - {fileID: 6174456509494615470, guid: 999641ed0e8a6424595dfa482b89f1ef, type: 3}
  - {fileID: 1195690611092358, guid: 360a4a4695df9834eb0697a8e14f743f, type: 3}
  - {fileID: 1546399597766936, guid: 6168cd56cd6c54ceea9dce5cbd70458a, type: 3}
  - {fileID: 1715439837662698, guid: 23fbf2b41e7a11b468af47b5b9fe6edc, type: 3}
  - {fileID: 2659515895020646453, guid: c45741fede7b54be6baf57afd91a0f63, type: 3}
  - {fileID: 4967407328254189309, guid: e1837e79876a8474a947901b8f4e5a2b, type: 3}
  - {fileID: 2479402296072825208, guid: cb8dbb0b458cc48d38c429fe20c77c46, type: 3}
  - {fileID: 9171328478401933806, guid: 90512327e993f422ea26a2a718213c14, type: 3}
  - {fileID: 1260654842730644, guid: 77573510eaf859c4695181255e2d6c2d, type: 3}
  - {fileID: 5367018417131558920, guid: 63ed8010745064e9f859e176f98ad9a6, type: 3}
  - {fileID: 1382199488278630, guid: de5f42023184642b0b244a8e0ad56f03, type: 3}
