%YAML 1.1
%TAG !u! tag:unity3d.com,2011:
--- !u!1045 &1
EditorBuildSettings:
  m_ObjectHideFlags: 0
  serializedVersion: 2
  m_Scenes:
  - enabled: 1
    path: Assets/Scenes/01_Opening_Intro.unity
    guid: 227845da763dd47819a076ec027bbd0c
  - enabled: 1
    path: Assets/Scenes/02_Menu.unity
    guid: 99c79e4cdf3b147e29ccf9e775c8f451
  - enabled: 1
    path: Assets/Scenes/03_Gameplay_Intro.unity
    guid: 38de48a22809b472ebab5d85d9e63257
  - enabled: 1
    path: Assets/Scenes/04_Gameplay.unity
    guid: 99c9720ab356a0642a771bea13969a05
  - enabled: 1
    path: Assets/Scenes/05_Boss_Intro.unity
    guid: 7b13caa894fd543cc9d32d6313253010
  m_configObjects:
    com.unity.addressableassets: {fileID: 11400000, guid: 8c2175579ebff450f881f3dbb70c5745,
      type: 2}
