{
    "name": "PlayModeTests",
    "references": [
        "TestMethods",
        "Asteroids",
        "Unity.TextMeshPro",
        "UnityEngine.TestRunner",
        "UnityEditor.TestRunner",
        "Unity.Timeline"
    ],
    "includePlatforms": [],
    "excludePlatforms": [],
    "allowUnsafeCode": false,
    "overrideReferences": true,
    "precompiledReferences": [
        "nunit.framework.dll"
    ],
    "autoReferenced": false,
    "defineConstraints": [
        "UNITY_INCLUDE_TESTS"
    ],
    "versionDefines": [],
    "noEngineReferences": false
}